{
	"code": 1,
	"message": "成功!",
	"object": [
		{
			"carID": 1,
			"carPhoto": "http://cdnpubimg.cheok.com/PUBLIC/CAR_IMAGE/2018-05-25/9faee5dc-7401-4459-ada0-8c7b2af287a3-300.jpg",
			"carName": "奥迪A4L 2017款 舒适型 无添加任何防腐剂",
			"kum": 20000,
			"registerDate": "1528179143697",
			"isNewCar": true,
			"carSellStatus": 1,
			"carPrice": 123400,
			"label": [
				{
					"labelName": "一手好车",
					"labelTextColor": "#6ba6e7",
					"labelBorderColor": "#7ab4f4",
					"labelBackGroundColor": null,
					"labelImage": "../../images/test/dun1.jpg"
				},
				{
					"labelName": "真实车源",
					"labelTextColor": "#6ba6e7",
					"labelBorderColor": "#7ab4f4",
					"labelBackGroundColor": null,
					"labelImage": ""
				}
			]
		},
		{
			"carID": 2,
			"carPhoto": "http://cdnpubimg.cheok.com/PUBLIC/CAR_IMAGE/2018-05-16/041eeca0-2e77-45c0-b3b3-85a0264282ff-300.jpg",
			"carName": "奥迪A4L 2018款 舒适型 无添加任何防腐剂",
			"kum": 20000,
			"registerDate": "1528179143697",
			"isNewCar": true,
			"carSellStatus": 1,
			"carPrice": 123000,
			"label": [
				{
					"labelName": "一手好车",
					"labelTextColor": "#6ba6e7",
					"labelBorderColor": "#7ab4f4",
					"labelBackGroundColor": null,
					"labelImage": ""
				}
			]
		},
		{
			"carID": 3,
			"carPhoto": "http://cdnpubimg.cheok.com/PUBLIC/CA1R_IMAGE/2018-05-25/0bde8c98-9839-4e77-9105-78e3092c5f9f.jpg",
			"carName": "奥迪A4L 2019款 舒适型 无添加任何防腐剂",
			"kum": 20000,
			"registerDate": "1528179143697",
			"isNewCar": true,
			"carSellStatus": 1,
			"carPrice": 120000,
			"label": [
				{
					"labelName": "一手好车",
					"labelTextColor": "#6ba6e7",
					"labelBorderColor": "#7ab4f4",
					"labelBackGroundColor": null,
					"labelImage": ""
				}
			]
		},
		{
			"carID": 4,
			"carPhoto": "http://cdnpubimg.cheok.com/PUBLIC/CA1R_IMAGE/2018-05-25/0bde8c98-9839-4e77-9105-78e3092c5f9f.jpg",
			"carName": "奥迪A4L 2020款 舒适型 无添加任何防腐剂",
			"kum": 20000,
			"registerDate": "1528179143697",
			"isNewCar": true,
			"carSellStatus": 1,
			"carPrice": 120000,
			"label": [
				{
					"labelName": "一手好车",
					"labelTextColor": "#6ba6e7",
					"labelBorderColor": "#7ab4f4",
					"labelBackGroundColor": null,
					"labelImage": ""
				}
			]
		},
		{
			"carID": 5,
			"carPhoto": "http://cdnpubimg.cheok.com/PUBLIC/CA1R_IMAGE/2018-05-25/0bde8c98-9839-4e77-9105-78e3092c5f9f.jpg",
			"carName": "奥迪A4L 2021款 舒适型 无添加任何防腐剂",
			"kum": 20000,
			"registerDate": "1528179143697",
			"isNewCar": true,
			"carSellStatus": 1,
			"carPrice": 120000,
			"label": [
				{
					"labelName": "一手好车",
					"labelTextColor": "#6ba6e7",
					"labelBorderColor": "#7ab4f4",
					"labelBackGroundColor": null,
					"labelImage": ""
				}
			]
		},
		{
			"carID": 6,
			"carPhoto": "http://cdnpubimg.cheok.com/PUBLIC/CA1R_IMAGE/2018-05-25/0bde8c98-9839-4e77-9105-78e3092c5f9f.jpg",
			"carName": "奥迪A4L 2022款 舒适型 无添加任何防腐剂",
			"kum": 20000,
			"registerDate": "1528179143697",
			"isNewCar": true,
			"carSellStatus": 1,
			"carPrice": 120000,
			"label": [
				{
					"labelName": "一手好车",
					"labelTextColor": "#6ba6e7",
					"labelBorderColor": "#7ab4f4",
					"labelBackGroundColor": null,
					"labelImage": ""
				}
			]
		},
		{
			"carID": 7,
			"carPhoto": "http://cdnpubimg.cheok.com/PUBLIC/CA1R_IMAGE/2018-05-25/0bde8c98-9839-4e77-9105-78e3092c5f9f.jpg",
			"carName": "奥迪A4L 2023款 舒适型 无添加任何防腐剂",
			"kum": 20000,
			"registerDate": "1528179143697",
			"isNewCar": true,
			"carSellStatus": 1,
			"carPrice": 120000,
			"label": [
				{
					"labelName": "一手好车",
					"labelTextColor": "#6ba6e7",
					"labelBorderColor": "#7ab4f4",
					"labelBackGroundColor": null,
					"labelImage": ""
				}
			]
		},
		{
			"carID": 8,
			"carPhoto": "http://cdnpubimg.cheok.com/PUBLIC/CA1R_IMAGE/2018-05-25/0bde8c98-9839-4e77-9105-78e3092c5f9f.jpg",
			"carName": "奥迪A4L 2024款 舒适型 无添加任何防腐剂",
			"kum": 20000,
			"registerDate": "1528179143697",
			"isNewCar": true,
			"carSellStatus": 1,
			"carPrice": 120000,
			"label": [
				{
					"labelName": "一手好车",
					"labelTextColor": "#6ba6e7",
					"labelBorderColor": "#7ab4f4",
					"labelBackGroundColor": null,
					"labelImage": ""
				}
			]
		},
		{
			"carID": 9,
			"carPhoto": "http://cdnpubimg.cheok.com/PUBLIC/CA1R_IMAGE/2018-05-25/0bde8c98-9839-4e77-9105-78e3092c5f9f.jpg",
			"carName": "奥迪A4L 2025款 舒适型 无添加任何防腐剂",
			"kum": 20000,
			"registerDate": "1528179143697",
			"isNewCar": true,
			"carSellStatus": 1,
			"carPrice": 120000,
			"label": [
				{
					"labelName": "一手好车",
					"labelTextColor": "#6ba6e7",
					"labelBorderColor": "#7ab4f4",
					"labelBackGroundColor": null,
					"labelImage": ""
				}
			]
		},
		{
			"carID": 10,
			"carPhoto": "http://cdnpubimg.cheok.com/PUBLIC/CA1R_IMAGE/2018-05-25/0bde8c98-9839-4e77-9105-78e3092c5f9f.jpg",
			"carName": "奥迪A4L 2026款 舒适型 无添加任何防腐剂",
			"kum": 20000,
			"registerDate": "1528179143697",
			"isNewCar": true,
			"carSellStatus": 1,
			"carPrice": 120000,
			"label": [
				{
					"labelName": "一手好车",
					"labelTextColor": "#6ba6e7",
					"labelBorderColor": "#7ab4f4",
					"labelBackGroundColor": null,
					"labelImage": ""
				}
			]
		}
	],
	"map": {},
	"page": {
		"currentPage": 0,
		"pageRecords": 10,
		"totalPages": 2,
		"totalRecords": 20,
		"startRecord": 0,
		"nextPage": 1,
		"previousPage": 0,
		"hasNextPage": true,
		"hasPreviousPage": false
	}
}